<?xml version="1.0" standalone="no"?>
<!DOCTYPE svg PUBLIC "-//W3C//DTD SVG 1.1//EN" "http://www.w3.org/Graphics/SVG/1.1/DTD/svg11.dtd" >
<svg xmlns="http://www.w3.org/2000/svg">
  <metadata>Generated by IcoMoon</metadata>
  <defs>
    <font id="icomoon" horiz-adv-x="1024">
      <font-face units-per-em="1024" ascent="960" descent="-64"/>
      <missing-glyph horiz-adv-x="1024"/>
      <glyph unicode="&#x20;" horiz-adv-x="512" d=""/>
      <glyph unicode="&#xe617;" glyph-name="uniE617"
             d="M306.42 405.041l331.825-454.168c10.191-17.408 38.473-19.944 63.244-5.461 24.966 14.434 36.718 40.229 26.722 57.685l-309.346 401.944c0 0-16.872 23.893-16.872 43.447 0 17.067 16.872 38.181 16.872 38.181l310.565 406.235c10.191 17.359-1.755 43.252-26.526 57.637-24.966 14.629-53.297 12.044-63.488-5.413l-332.995-458.459c-3.023-4.876-15.458-21.163-15.458-38.181 0-18.091 12.483-38.473 15.458-43.447z"/>
      <glyph unicode="&#xe618;" glyph-name="uniE618"
             d="M717.58 490.91l-331.776 454.217c-10.191 17.408-38.473 19.944-63.244 5.461-24.966-14.385-36.766-40.229-26.722-57.637l309.297-402.042c0 0 16.872-23.893 16.872-43.447 0-17.067-16.872-38.181-16.872-38.181l-310.565-406.235c-10.191-17.359 1.755-43.252 26.526-57.637 24.966-14.629 53.297-12.044 63.488 5.413l332.995 458.411c3.023 4.876 15.458 21.114 15.458 38.181 0 18.188-12.483 38.571-15.458 43.496z"/>
      <glyph unicode="&#xe691;" glyph-name="uniE691"
             d="M476.306 264.265c49.883 58.466 255.512 343.528 255.512 343.528 6.827 9.070 1.804 24.283-11.069 33.987-12.971 9.655-28.965 10.142-35.742 1.024 0 0-201.289-270.677-237.080-320.658-3.511-4.925-8.728-10.533-17.944-3.706-33.304 24.674-130.194 97.768-130.194 97.768-9.118 6.778-24.235 1.755-33.938-11.166-9.655-12.971-10.142-28.916-1.024-35.645 0 0 100.401-77.629 141.214-108.837 27.697-21.211 52.858-16.628 70.266 3.706z"/>
      <glyph unicode="&#xe6c1;" glyph-name="ballot-check"
             d="M631.467 448l324.267-465.067-204.8-46.933-238.933 341.333-238.933-341.333-204.8 46.933 324.267 465.067-324.267 465.067 204.8 46.933 238.933-341.333 238.933 341.333 204.8-46.933-324.267-465.067z"/>
    </font>
  </defs>
</svg>